// Jest Snapshot v1, https://goo.gl/fbAQLP

exports[`MyChallengesScreen renders 1`] = `
<View
  collapsable={true}
  pointerEvents="box-none"
  style={
    Object {
      "flex": 1,
    }
  }
>
  <View
    collapsable={false}
    pointerEvents="box-none"
    style={
      Object {
        "flex": 1,
      }
    }
  >
    <View
      style={
        Object {
          "flex": 1,
        }
      }
    >
      <RNCSafeAreaView
        style={
          Object {
            "flex": 1,
          }
        }
      >
        <View
          style={
            Object {
              "flex": 1,
              "overflow": "hidden",
            }
          }
        >
          <View
            pointerEvents="box-none"
            style={
              Object {
                "bottom": 0,
                "left": 0,
                "position": "absolute",
                "right": 0,
                "top": 0,
              }
            }
          >
            <View
              accessibilityElementsHidden={false}
              closing={false}
              gestureVelocityImpact={0.3}
              importantForAccessibility="auto"
              pointerEvents="box-none"
              style={
                Object {
                  "bottom": 0,
                  "left": 0,
                  "position": "absolute",
                  "right": 0,
                  "top": 0,
                }
              }
              transitionSpec={
                Object {
                  "close": Object {
                    "animation": "spring",
                    "config": Object {
                      "damping": 500,
                      "mass": 3,
                      "overshootClamping": true,
                      "restDisplacementThreshold": 0.01,
                      "restSpeedThreshold": 0.01,
                      "stiffness": 1000,
                    },
                  },
                  "open": Object {
                    "animation": "spring",
                    "config": Object {
                      "damping": 500,
                      "mass": 3,
                      "overshootClamping": true,
                      "restDisplacementThreshold": 0.01,
                      "restSpeedThreshold": 0.01,
                      "stiffness": 1000,
                    },
                  },
                }
              }
            >
              <View
                pointerEvents="box-none"
                style={
                  Object {
                    "flex": 1,
                    "marginTop": 64,
                  }
                }
              >
                <View
                  enabled={false}
                  hitSlop={
                    Object {
                      "right": -700,
                    }
                  }
                  maxDeltaY={20}
                  minOffsetX={5}
                >
                  <View
                    style={
                      Object {
                        "flex": 1,
                        "transform": Array [
                          Object {
                            "translateX": 0,
                          },
                          Object {
                            "translateX": 0,
                          },
                        ],
                      }
                    }
                  >
                    <View
                      pointerEvents="none"
                      style={
                        Object {
                          "backgroundColor": "#fff",
                          "bottom": 0,
                          "left": 0,
                          "position": "absolute",
                          "shadowColor": "#000",
                          "shadowOffset": Object {
                            "height": 1,
                            "width": -1,
                          },
                          "shadowOpacity": 0.3,
                          "shadowRadius": 5,
                          "top": 0,
                          "width": 3,
                        }
                      }
                    />
                    <View
                      style={
                        Array [
                          Object {
                            "flex": 1,
                            "overflow": "hidden",
                          },
                          Array [
                            Object {
                              "backgroundColor": "rgb(242, 242, 242)",
                            },
                            undefined,
                          ],
                        ]
                      }
                    >
                      <View
                        style={
                          Object {
                            "flex": 1,
                            "flexDirection": "column-reverse",
                          }
                        }
                      >
                        <View
                          style={
                            Object {
                              "flex": 1,
                            }
                          }
                        >
                          <View
                            style={
                              Object {
                                "alignItems": "center",
                                "display": "flex",
                                "flex": 1,
                                "flexDirection": "column",
                                "justifyContent": "center",
                              }
                            }
                          >
                            <RCTScrollView
                              data={
                                Array [
                                  Object {
                                    "challenge": Object {
                                      "color": "#ED9118",
                                      "description": "Suche dir einen Tag in der Woche aus, an dem du auf Fleisch verzichtest.",
                                      "difficulty": "EASY",
                                      "duration": 10,
                                      "icon": "http://localhost:8000/media/images/challenges/Screenshot_2019-04-03_at_08.15.53_7W1iHZE_al5fTIz.png",
                                      "id": 1,
                                      "image": "http://localhost:8000/media/images/challenges/healthy2.jpg",
                                      "periodicity": "DAILY",
                                      "title": "Veggie day",
                                      "topic": "Ozean",
                                    },
                                    "id": 7,
                                    "joined_time": "2019-12-27T20:32:18.667597+01:00",
                                    "mark_deleted": false,
                                    "progress": Array [],
                                    "progress_loggable": true,
                                    "shared": false,
                                  },
                                  Object {
                                    "challenge": Object {
                                      "color": "#0B85B5",
                                      "description": "Schalte den Monitor aus, statt den Bildschirmschoner einzustellen.",
                                      "difficulty": "EASY",
                                      "duration": 60,
                                      "icon": "http://localhost:8000/account/participations",
                                      "id": 4,
                                      "image": "http://localhost:8000/media/images/challenges/shut-eye.jpeg",
                                      "periodicity": "DAILY",
                                      "title": "Shut Exe",
                                      "topic": "Essen",
                                    },
                                    "id": 6,
                                    "joined_time": "2019-12-11T20:52:50.403452+01:00",
                                    "mark_deleted": false,
                                    "progress": Array [
                                      Object {
                                        "create_time": "2019-12-11T20:52:54.202278+01:00",
                                        "id": 28,
                                        "mark_deleted": false,
                                        "participation": 6,
                                      },
                                      Object {
                                        "create_time": "2019-12-27T20:32:22.180731+01:00",
                                        "id": 29,
                                        "mark_deleted": false,
                                        "participation": 6,
                                      },
                                    ],
                                    "progress_loggable": false,
                                    "shared": false,
                                  },
                                ]
                              }
                              disableVirtualization={false}
                              horizontal={false}
                              initialNumToRender={10}
                              maxToRenderPerBatch={10}
                              numColumns={1}
                              onEndReachedThreshold={2}
                              refreshControl={
                                <RefreshControlMock
                                  onRefresh={[Function]}
                                  refreshing={false}
                                />
                              }
                              refreshing={false}
                              removeClippedSubviews={false}
                              scrollEventThrottle={50}
                              stickyHeaderIndices={Array []}
                              style={
                                Object {
                                  "flex": 1,
                                  "width": "100%",
                                }
                              }
                              testID="my-challenges-list"
                              updateCellsBatchingPeriod={50}
                              viewabilityConfigCallbackPairs={Array []}
                              windowSize={21}
                            >
                              <RCTRefreshControl />
                              <View>
                                <View
                                  style={null}
                                >
                                  <View
                                    accessible={true}
                                    focusable={true}
                                    isTVSelectable={true}
                                    style={
                                      Array [
                                        false,
                                        Object {
                                          "margin": 8,
                                          "marginHorizontal": 6,
                                        },
                                      ]
                                    }
                                  >
                                    <View
                                      style={
                                        Object {
                                          "alignItems": "stretch",
                                          "backgroundColor": "#ffffff",
                                          "display": "flex",
                                          "elevation": 4,
                                          "flexDirection": "column",
                                          "justifyContent": "space-between",
                                          "padding": 6,
                                          "shadowColor": "#000000",
                                          "shadowOffset": Object {
                                            "height": 3,
                                            "width": 0,
                                          },
                                          "shadowOpacity": 0.24,
                                          "shadowRadius": 4,
                                        }
                                      }
                                    >
                                      <View
                                        style={
                                          Object {
                                            "alignItems": "flex-start",
                                            "display": "flex",
                                            "flexDirection": "row",
                                            "justifyContent": "flex-end",
                                          }
                                        }
                                      >
                                        <View
                                          style={
                                            Object {
                                              "flex": 1,
                                            }
                                          }
                                        >
                                          <Text
                                            style={
                                              Array [
                                                Object {
                                                  "color": "#000000",
                                                  "fontFamily": "System",
                                                  "fontWeight": "400",
                                                  "textAlign": "left",
                                                },
                                                Array [
                                                  Object {
                                                    "color": "rgba(0, 0, 0, 0.87)",
                                                    "fontFamily": "System",
                                                    "fontWeight": "400",
                                                    "textAlign": "left",
                                                    "writingDirection": "ltr",
                                                  },
                                                  Array [
                                                    Object {
                                                      "fontSize": 24,
                                                      "letterSpacing": 0,
                                                      "lineHeight": 32,
                                                      "marginVertical": 2,
                                                    },
                                                    undefined,
                                                  ],
                                                  Array [
                                                    Object {
                                                      "fontSize": 24,
                                                      "letterSpacing": 0,
                                                      "lineHeight": 32,
                                                      "marginVertical": 2,
                                                    },
                                                    undefined,
                                                  ],
                                                ],
                                              ]
                                            }
                                          >
                                            Veggie day
                                          </Text>
                                        </View>
                                        <View
                                          style={
                                            Object {
                                              "flex": 0,
                                            }
                                          }
                                        >
                                          <Text
                                            style={
                                              Array [
                                                Object {
                                                  "color": "#000000",
                                                  "fontFamily": "System",
                                                  "fontWeight": "400",
                                                  "textAlign": "left",
                                                },
                                                Object {
                                                  "backgroundColor": "#f1c40f",
                                                  "color": "black",
                                                  "marginRight": -6,
                                                  "marginTop": -6,
                                                  "paddingHorizontal": 6,
                                                  "paddingVertical": 3,
                                                },
                                              ]
                                            }
                                          >
                                            Ozean
                                          </Text>
                                        </View>
                                      </View>
                                      <View
                                        style={
                                          Object {
                                            "alignItems": "flex-end",
                                            "display": "flex",
                                            "flex": 1,
                                            "flexDirection": "row",
                                            "marginTop": 10,
                                          }
                                        }
                                      >
                                        <View
                                          style={
                                            Object {
                                              "flex": 1,
                                            }
                                          }
                                        >
                                          <Text
                                            style={
                                              Array [
                                                Object {
                                                  "color": "#000000",
                                                  "fontFamily": "System",
                                                  "fontWeight": "400",
                                                  "textAlign": "left",
                                                },
                                                undefined,
                                              ]
                                            }
                                          >
                                            Suche dir einen Tag in der Woche aus, an dem du auf Fleisch verzichtest.
                                          </Text>
                                        </View>
                                        <View
                                          style={
                                            Object {
                                              "flex": 0,
                                              "margin": 5,
                                            }
                                          }
                                        >
                                          <View
                                            pointerEvents="auto"
                                            style={
                                              Object {
                                                "backgroundColor": "#ffd60d",
                                                "borderRadius": 28,
                                                "elevation": 6,
                                                "opacity": 1,
                                                "shadowColor": "#000000",
                                                "shadowOffset": Object {
                                                  "height": 5,
                                                  "width": 0,
                                                },
                                                "shadowOpacity": 0.24,
                                                "shadowRadius": 6,
                                                "transform": Array [
                                                  Object {
                                                    "scale": 1,
                                                  },
                                                ],
                                              }
                                            }
                                          >
                                            <View
                                              accessibilityRole="button"
                                              accessibilityStates={Array []}
                                              accessible={true}
                                              focusable={true}
                                              isTVSelectable={true}
                                              style={
                                                Array [
                                                  Object {
                                                    "overflow": "hidden",
                                                  },
                                                  Object {
                                                    "borderRadius": 28,
                                                  },
                                                ]
                                              }
                                            >
                                              <View
                                                pointerEvents="none"
                                                style={
                                                  Array [
                                                    Object {
                                                      "alignItems": "center",
                                                      "flexDirection": "row",
                                                      "justifyContent": "center",
                                                    },
                                                    Object {
                                                      "height": 40,
                                                      "width": 40,
                                                    },
                                                  ]
                                                }
                                              >
                                                <View
                                                  style={
                                                    Array [
                                                      Object {
                                                        "alignItems": "center",
                                                        "justifyContent": "center",
                                                      },
                                                      Object {
                                                        "height": 24,
                                                        "width": 24,
                                                      },
                                                    ]
                                                  }
                                                >
                                                  <View
                                                    style={
                                                      Object {
                                                        "bottom": 0,
                                                        "left": 0,
                                                        "opacity": 1,
                                                        "position": "absolute",
                                                        "right": 0,
                                                        "top": 0,
                                                        "transform": Array [
                                                          Object {
                                                            "rotate": "0deg",
                                                          },
                                                        ],
                                                      }
                                                    }
                                                  >
                                                    <Text
                                                      accessibilityElementsHidden={true}
                                                      allowFontScaling={false}
                                                      importantForAccessibility="no-hide-descendants"
                                                      pointerEvents="none"
                                                      style={
                                                        Array [
                                                          Object {
                                                            "color": "rgba(0, 0, 0, .54)",
                                                            "fontSize": 24,
                                                          },
                                                          Array [
                                                            Object {
                                                              "transform": Array [
                                                                Object {
                                                                  "scaleX": 1,
                                                                },
                                                              ],
                                                            },
                                                            Object {
                                                              "backgroundColor": "transparent",
                                                            },
                                                          ],
                                                          Object {
                                                            "fontFamily": "material-community",
                                                            "fontStyle": "normal",
                                                            "fontWeight": "normal",
                                                          },
                                                          Object {},
                                                        ]
                                                      }
                                                    >
                                                      
                                                    </Text>
                                                  </View>
                                                </View>
                                              </View>
                                            </View>
                                          </View>
                                        </View>
                                      </View>
                                    </View>
                                  </View>
                                </View>
                                <View
                                  style={null}
                                >
                                  <View
                                    accessible={true}
                                    focusable={true}
                                    isTVSelectable={true}
                                    style={
                                      Array [
                                        false,
                                        Object {
                                          "margin": 8,
                                          "marginHorizontal": 6,
                                        },
                                      ]
                                    }
                                  >
                                    <View
                                      style={
                                        Object {
                                          "alignItems": "stretch",
                                          "backgroundColor": "#ffffff",
                                          "display": "flex",
                                          "elevation": 4,
                                          "flexDirection": "column",
                                          "justifyContent": "space-between",
                                          "padding": 6,
                                          "shadowColor": "#000000",
                                          "shadowOffset": Object {
                                            "height": 3,
                                            "width": 0,
                                          },
                                          "shadowOpacity": 0.24,
                                          "shadowRadius": 4,
                                        }
                                      }
                                    >
                                      <View
                                        style={
                                          Object {
                                            "alignItems": "flex-start",
                                            "display": "flex",
                                            "flexDirection": "row",
                                            "justifyContent": "flex-end",
                                          }
                                        }
                                      >
                                        <View
                                          style={
                                            Object {
                                              "flex": 1,
                                            }
                                          }
                                        >
                                          <Text
                                            style={
                                              Array [
                                                Object {
                                                  "color": "#000000",
                                                  "fontFamily": "System",
                                                  "fontWeight": "400",
                                                  "textAlign": "left",
                                                },
                                                Array [
                                                  Object {
                                                    "color": "rgba(0, 0, 0, 0.87)",
                                                    "fontFamily": "System",
                                                    "fontWeight": "400",
                                                    "textAlign": "left",
                                                    "writingDirection": "ltr",
                                                  },
                                                  Array [
                                                    Object {
                                                      "fontSize": 24,
                                                      "letterSpacing": 0,
                                                      "lineHeight": 32,
                                                      "marginVertical": 2,
                                                    },
                                                    undefined,
                                                  ],
                                                  Array [
                                                    Object {
                                                      "fontSize": 24,
                                                      "letterSpacing": 0,
                                                      "lineHeight": 32,
                                                      "marginVertical": 2,
                                                    },
                                                    undefined,
                                                  ],
                                                ],
                                              ]
                                            }
                                          >
                                            Shut Exe
                                          </Text>
                                        </View>
                                        <View
                                          style={
                                            Object {
                                              "flex": 0,
                                            }
                                          }
                                        >
                                          <Text
                                            style={
                                              Array [
                                                Object {
                                                  "color": "#000000",
                                                  "fontFamily": "System",
                                                  "fontWeight": "400",
                                                  "textAlign": "left",
                                                },
                                                Object {
                                                  "backgroundColor": "#f1c40f",
                                                  "color": "black",
                                                  "marginRight": -6,
                                                  "marginTop": -6,
                                                  "paddingHorizontal": 6,
                                                  "paddingVertical": 3,
                                                },
                                              ]
                                            }
                                          >
                                            Essen
                                          </Text>
                                        </View>
                                      </View>
                                      <View
                                        style={
                                          Object {
                                            "alignItems": "flex-end",
                                            "display": "flex",
                                            "flex": 1,
                                            "flexDirection": "row",
                                            "marginTop": 10,
                                          }
                                        }
                                      >
                                        <View
                                          style={
                                            Object {
                                              "flex": 1,
                                            }
                                          }
                                        >
                                          <Text
                                            style={
                                              Array [
                                                Object {
                                                  "color": "#000000",
                                                  "fontFamily": "System",
                                                  "fontWeight": "400",
                                                  "textAlign": "left",
                                                },
                                                undefined,
                                              ]
                                            }
                                          >
                                            Schalte den Monitor aus, statt den Bildschirmschoner einzustellen.
                                          </Text>
                                        </View>
                                        <View
                                          style={
                                            Object {
                                              "flex": 0,
                                              "margin": 5,
                                            }
                                          }
                                        >
                                          <Text
                                            style={
                                              Array [
                                                Object {
                                                  "color": "#000000",
                                                  "fontFamily": "System",
                                                  "fontWeight": "400",
                                                  "textAlign": "left",
                                                },
                                                undefined,
                                              ]
                                            }
                                          >
                                            3
                                            %
                                          </Text>
                                        </View>
                                      </View>
                                    </View>
                                  </View>
                                </View>
                                <View
                                  style={
                                    Object {
                                      "height": 0,
                                    }
                                  }
                                />
                              </View>
                            </RCTScrollView>
                          </View>
                        </View>
                      </View>
                    </View>
                  </View>
                </View>
              </View>
            </View>
          </View>
        </View>
        <View
          pointerEvents="box-none"
          style={
            Object {
              "left": 0,
              "position": "absolute",
              "right": 0,
              "top": 0,
            }
          }
        >
          <View
            accessibilityElementsHidden={false}
            importantForAccessibility="auto"
            pointerEvents="box-none"
            style={null}
          >
            <View
              pointerEvents="none"
              style={
                Object {
                  "bottom": 0,
                  "left": 0,
                  "opacity": 1,
                  "position": "absolute",
                  "right": 0,
                  "top": 0,
                }
              }
            >
              <View
                style={
                  Object {
                    "backgroundColor": "rgb(255, 255, 255)",
                    "borderBottomColor": "rgb(199, 199, 204)",
                    "flex": 1,
                    "shadowColor": "rgb(199, 199, 204)",
                    "shadowOffset": Object {
                      "height": 0.5,
                      "width": 0,
                    },
                    "shadowOpacity": 0.85,
                    "shadowRadius": 0,
                  }
                }
              />
            </View>
            <View
              pointerEvents="box-none"
              style={
                Object {
                  "height": 64,
                  "maxHeight": undefined,
                  "minHeight": undefined,
                  "opacity": undefined,
                  "transform": undefined,
                }
              }
            >
              <View
                pointerEvents="none"
                style={
                  Object {
                    "height": 20,
                  }
                }
              />
              <View
                pointerEvents="box-none"
                style={
                  Object {
                    "alignItems": "center",
                    "flex": 1,
                    "flexDirection": "row",
                    "justifyContent": "center",
                  }
                }
              >
                <View
                  pointerEvents="box-none"
                  style={
                    Object {
                      "marginHorizontal": 18,
                      "opacity": 1,
                    }
                  }
                >
                  <Text
                    accessibilityRole="header"
                    numberOfLines={1}
                    style={
                      Object {
                        "color": "rgb(28, 28, 30)",
                        "fontSize": 17,
                        "fontWeight": "600",
                      }
                    }
                  >
                    testscreen
                  </Text>
                </View>
              </View>
            </View>
          </View>
        </View>
      </RNCSafeAreaView>
    </View>
  </View>
</View>
`;

exports[`MyChallengesScreen renders empty mychallenges list 1`] = `
<View
  collapsable={true}
  pointerEvents="box-none"
  style={
    Object {
      "flex": 1,
    }
  }
>
  <View
    collapsable={false}
    pointerEvents="box-none"
    style={
      Object {
        "flex": 1,
      }
    }
  >
    <View
      style={
        Object {
          "flex": 1,
        }
      }
    >
      <RNCSafeAreaView
        style={
          Object {
            "flex": 1,
          }
        }
      >
        <View
          style={
            Object {
              "flex": 1,
              "overflow": "hidden",
            }
          }
        >
          <View
            pointerEvents="box-none"
            style={
              Object {
                "bottom": 0,
                "left": 0,
                "position": "absolute",
                "right": 0,
                "top": 0,
              }
            }
          >
            <View
              accessibilityElementsHidden={false}
              closing={false}
              gestureVelocityImpact={0.3}
              importantForAccessibility="auto"
              pointerEvents="box-none"
              style={
                Object {
                  "bottom": 0,
                  "left": 0,
                  "position": "absolute",
                  "right": 0,
                  "top": 0,
                }
              }
              transitionSpec={
                Object {
                  "close": Object {
                    "animation": "spring",
                    "config": Object {
                      "damping": 500,
                      "mass": 3,
                      "overshootClamping": true,
                      "restDisplacementThreshold": 0.01,
                      "restSpeedThreshold": 0.01,
                      "stiffness": 1000,
                    },
                  },
                  "open": Object {
                    "animation": "spring",
                    "config": Object {
                      "damping": 500,
                      "mass": 3,
                      "overshootClamping": true,
                      "restDisplacementThreshold": 0.01,
                      "restSpeedThreshold": 0.01,
                      "stiffness": 1000,
                    },
                  },
                }
              }
            >
              <View
                pointerEvents="box-none"
                style={
                  Object {
                    "flex": 1,
                    "marginTop": 64,
                  }
                }
              >
                <View
                  enabled={false}
                  hitSlop={
                    Object {
                      "right": -700,
                    }
                  }
                  maxDeltaY={20}
                  minOffsetX={5}
                >
                  <View
                    style={
                      Object {
                        "flex": 1,
                        "transform": Array [
                          Object {
                            "translateX": 0,
                          },
                          Object {
                            "translateX": 0,
                          },
                        ],
                      }
                    }
                  >
                    <View
                      pointerEvents="none"
                      style={
                        Object {
                          "backgroundColor": "#fff",
                          "bottom": 0,
                          "left": 0,
                          "position": "absolute",
                          "shadowColor": "#000",
                          "shadowOffset": Object {
                            "height": 1,
                            "width": -1,
                          },
                          "shadowOpacity": 0.3,
                          "shadowRadius": 5,
                          "top": 0,
                          "width": 3,
                        }
                      }
                    />
                    <View
                      style={
                        Array [
                          Object {
                            "flex": 1,
                            "overflow": "hidden",
                          },
                          Array [
                            Object {
                              "backgroundColor": "rgb(242, 242, 242)",
                            },
                            undefined,
                          ],
                        ]
                      }
                    >
                      <View
                        style={
                          Object {
                            "flex": 1,
                            "flexDirection": "column-reverse",
                          }
                        }
                      >
                        <View
                          style={
                            Object {
                              "flex": 1,
                            }
                          }
                        >
                          <View
                            style={
                              Object {
                                "alignItems": "center",
                                "display": "flex",
                                "flex": 1,
                                "flexDirection": "column",
                                "justifyContent": "center",
                              }
                            }
                          >
                            <RCTScrollView
                              data={Array []}
                              disableVirtualization={false}
                              horizontal={false}
                              initialNumToRender={10}
                              maxToRenderPerBatch={10}
                              numColumns={1}
                              onEndReachedThreshold={2}
                              refreshControl={
                                <RefreshControlMock
                                  onRefresh={[Function]}
                                  refreshing={false}
                                />
                              }
                              refreshing={false}
                              removeClippedSubviews={false}
                              scrollEventThrottle={50}
                              stickyHeaderIndices={Array []}
                              style={
                                Object {
                                  "flex": 1,
                                  "width": "100%",
                                }
                              }
                              testID="my-challenges-list"
                              updateCellsBatchingPeriod={50}
                              viewabilityConfigCallbackPairs={Array []}
                              windowSize={21}
                            >
                              <RCTRefreshControl />
                              <View>
                                <Text
                                  style={
                                    Array [
                                      Object {
                                        "color": "#000000",
                                        "fontFamily": "System",
                                        "fontWeight": "400",
                                        "textAlign": "left",
                                      },
                                      Array [
                                        Object {
                                          "color": "rgba(0, 0, 0, 0.87)",
                                          "fontFamily": "System",
                                          "fontWeight": "400",
                                          "textAlign": "left",
                                          "writingDirection": "ltr",
                                        },
                                        Array [
                                          Object {
                                            "fontSize": 24,
                                            "letterSpacing": 0,
                                            "lineHeight": 32,
                                            "marginVertical": 2,
                                          },
                                          Object {
                                            "marginHorizontal": 10,
                                            "marginTop": "30%",
                                            "textAlign": "center",
                                          },
                                        ],
                                        Array [
                                          Object {
                                            "fontSize": 24,
                                            "letterSpacing": 0,
                                            "lineHeight": 32,
                                            "marginVertical": 2,
                                          },
                                          Object {
                                            "marginHorizontal": 10,
                                            "marginTop": "30%",
                                            "textAlign": "center",
                                          },
                                        ],
                                      ],
                                    ]
                                  }
                                >
                                  Du nimmst leider noch an keinen Challenges teil!
                                </Text>
                              </View>
                            </RCTScrollView>
                          </View>
                        </View>
                      </View>
                    </View>
                  </View>
                </View>
              </View>
            </View>
          </View>
        </View>
        <View
          pointerEvents="box-none"
          style={
            Object {
              "left": 0,
              "position": "absolute",
              "right": 0,
              "top": 0,
            }
          }
        >
          <View
            accessibilityElementsHidden={false}
            importantForAccessibility="auto"
            pointerEvents="box-none"
            style={null}
          >
            <View
              pointerEvents="none"
              style={
                Object {
                  "bottom": 0,
                  "left": 0,
                  "opacity": 1,
                  "position": "absolute",
                  "right": 0,
                  "top": 0,
                }
              }
            >
              <View
                style={
                  Object {
                    "backgroundColor": "rgb(255, 255, 255)",
                    "borderBottomColor": "rgb(199, 199, 204)",
                    "flex": 1,
                    "shadowColor": "rgb(199, 199, 204)",
                    "shadowOffset": Object {
                      "height": 0.5,
                      "width": 0,
                    },
                    "shadowOpacity": 0.85,
                    "shadowRadius": 0,
                  }
                }
              />
            </View>
            <View
              pointerEvents="box-none"
              style={
                Object {
                  "height": 64,
                  "maxHeight": undefined,
                  "minHeight": undefined,
                  "opacity": undefined,
                  "transform": undefined,
                }
              }
            >
              <View
                pointerEvents="none"
                style={
                  Object {
                    "height": 20,
                  }
                }
              />
              <View
                pointerEvents="box-none"
                style={
                  Object {
                    "alignItems": "center",
                    "flex": 1,
                    "flexDirection": "row",
                    "justifyContent": "center",
                  }
                }
              >
                <View
                  pointerEvents="box-none"
                  style={
                    Object {
                      "marginHorizontal": 18,
                      "opacity": 1,
                    }
                  }
                >
                  <Text
                    accessibilityRole="header"
                    numberOfLines={1}
                    style={
                      Object {
                        "color": "rgb(28, 28, 30)",
                        "fontSize": 17,
                        "fontWeight": "600",
                      }
                    }
                  >
                    testscreen
                  </Text>
                </View>
              </View>
            </View>
          </View>
        </View>
      </RNCSafeAreaView>
    </View>
  </View>
</View>
`;
