// Jest Snapshot v1, https://goo.gl/fbAQLP

exports[`ChallengeInfo renders 1`] = `
<View
  collapsable={false}
  pointerEvents="box-none"
  style={
    Object {
      "flex": 1,
    }
  }
>
  <View>
    <Image
      source={
        Object {
          "uri": "http://test.local/image/url",
        }
      }
      style={
        Object {
          "height": 150,
          "width": "100%",
        }
      }
    />
    <View
      style={
        Object {
          "paddingHorizontal": 8,
          "paddingVertical": 4,
        }
      }
    >
      <Text
        style={
          Array [
            Object {
              "color": "#000000",
              "fontFamily": "System",
              "fontWeight": "400",
              "textAlign": "left",
            },
            Array [
              Object {
                "color": "rgba(0, 0, 0, 0.87)",
                "fontFamily": "System",
                "fontWeight": "400",
                "textAlign": "left",
                "writingDirection": "ltr",
              },
              Array [
                Object {
                  "fontSize": 24,
                  "letterSpacing": 0,
                  "lineHeight": 32,
                  "marginVertical": 2,
                },
                Object {
                  "alignItems": "center",
                  "display": "flex",
                  "flexDirection": "column",
                  "fontSize": 18,
                  "fontWeight": "500",
                  "justifyContent": "center",
                },
              ],
              Array [
                Object {
                  "fontSize": 24,
                  "letterSpacing": 0,
                  "lineHeight": 32,
                  "marginVertical": 2,
                },
                Object {
                  "alignItems": "center",
                  "display": "flex",
                  "flexDirection": "column",
                  "fontSize": 18,
                  "fontWeight": "500",
                  "justifyContent": "center",
                },
              ],
            ],
          ]
        }
      >
        Challenge Title
      </Text>
      <Text
        style={
          Array [
            Object {
              "color": "#000000",
              "fontFamily": "System",
              "fontWeight": "400",
              "textAlign": "left",
            },
            Array [
              Object {
                "color": "rgba(0, 0, 0, 0.87)",
                "fontFamily": "System",
                "fontWeight": "400",
                "textAlign": "left",
                "writingDirection": "ltr",
              },
              Array [
                Object {
                  "fontSize": 14,
                  "letterSpacing": 0.25,
                  "lineHeight": 20,
                  "marginVertical": 2,
                },
                Object {
                  "color": "#838383",
                  "fontSize": 14,
                },
              ],
              Array [
                Object {
                  "fontSize": 14,
                  "letterSpacing": 0.25,
                  "lineHeight": 20,
                  "marginVertical": 2,
                },
                Object {
                  "color": "#838383",
                  "fontSize": 14,
                },
              ],
            ],
          ]
        }
      />
    </View>
    <View
      style={
        Array [
          Object {
            "width": "100%",
          },
          undefined,
        ]
      }
    >
      <View
        style={
          Array [
            Object {
              "borderBottomWidth": 1,
              "flexDirection": "row",
              "height": 48,
              "paddingHorizontal": 16,
            },
            Object {
              "borderBottomColor": "rgba(0, 0, 0, 0.12)",
            },
            undefined,
          ]
        }
      >
        <View
          accessible={true}
          focusable={false}
          onClick={[Function]}
          onResponderGrant={[Function]}
          onResponderMove={[Function]}
          onResponderRelease={[Function]}
          onResponderTerminate={[Function]}
          onResponderTerminationRequest={[Function]}
          onStartShouldSetResponder={[Function]}
          style={
            Array [
              Object {
                "alignContent": "center",
                "flex": 1,
                "flexDirection": "row",
                "paddingVertical": 12,
              },
              undefined,
              undefined,
            ]
          }
        >
          <Text
            numberOfLines={1}
            style={
              Array [
                Object {
                  "color": "#000000",
                  "fontFamily": "System",
                  "fontWeight": "400",
                  "textAlign": "left",
                },
                Array [
                  Object {
                    "alignItems": "center",
                    "fontSize": 12,
                    "fontWeight": "500",
                    "height": 24,
                    "lineHeight": 24,
                  },
                  Object {
                    "color": "rgba(0, 0, 0, 0.6)",
                  },
                ],
              ]
            }
          >
            Schwierigkeitsgrad
          </Text>
        </View>
        <View
          accessible={true}
          focusable={false}
          onClick={[Function]}
          onResponderGrant={[Function]}
          onResponderMove={[Function]}
          onResponderRelease={[Function]}
          onResponderTerminate={[Function]}
          onResponderTerminationRequest={[Function]}
          onStartShouldSetResponder={[Function]}
          style={
            Array [
              Object {
                "alignContent": "center",
                "flex": 1,
                "flexDirection": "row",
                "paddingVertical": 12,
              },
              Object {
                "justifyContent": "flex-end",
              },
              undefined,
            ]
          }
        >
          <Text
            numberOfLines={1}
            style={
              Array [
                Object {
                  "color": "#000000",
                  "fontFamily": "System",
                  "fontWeight": "400",
                  "textAlign": "left",
                },
                Array [
                  Object {
                    "alignItems": "center",
                    "fontSize": 12,
                    "fontWeight": "500",
                    "height": 24,
                    "lineHeight": 24,
                  },
                  Object {
                    "color": "rgba(0, 0, 0, 0.6)",
                  },
                ],
              ]
            }
          >
            Frequenz
          </Text>
        </View>
        <View
          accessible={true}
          focusable={false}
          onClick={[Function]}
          onResponderGrant={[Function]}
          onResponderMove={[Function]}
          onResponderRelease={[Function]}
          onResponderTerminate={[Function]}
          onResponderTerminationRequest={[Function]}
          onStartShouldSetResponder={[Function]}
          style={
            Array [
              Object {
                "alignContent": "center",
                "flex": 1,
                "flexDirection": "row",
                "paddingVertical": 12,
              },
              Object {
                "justifyContent": "flex-end",
              },
              undefined,
            ]
          }
        >
          <Text
            numberOfLines={1}
            style={
              Array [
                Object {
                  "color": "#000000",
                  "fontFamily": "System",
                  "fontWeight": "400",
                  "textAlign": "left",
                },
                Array [
                  Object {
                    "alignItems": "center",
                    "fontSize": 12,
                    "fontWeight": "500",
                    "height": 24,
                    "lineHeight": 24,
                  },
                  Object {
                    "color": "rgba(0, 0, 0, 0.6)",
                  },
                ],
              ]
            }
          >
            Dauer
          </Text>
        </View>
      </View>
      <View
        accessible={true}
        focusable={false}
        isTVSelectable={true}
        onClick={[Function]}
        onResponderGrant={[Function]}
        onResponderMove={[Function]}
        onResponderRelease={[Function]}
        onResponderTerminate={[Function]}
        onResponderTerminationRequest={[Function]}
        onStartShouldSetResponder={[Function]}
        style={
          Array [
            false,
            Array [
              Object {
                "borderBottomWidth": 0.5,
                "borderStyle": "solid",
                "minHeight": 48,
                "paddingHorizontal": 16,
              },
              Object {
                "borderBottomColor": "rgba(0, 0, 0, 0.12)",
              },
              undefined,
            ],
          ]
        }
      >
        <View
          style={
            Object {
              "flex": 1,
              "flexDirection": "row",
            }
          }
        >
          <View
            accessible={true}
            focusable={false}
            isTVSelectable={true}
            onClick={[Function]}
            onResponderGrant={[Function]}
            onResponderMove={[Function]}
            onResponderRelease={[Function]}
            onResponderTerminate={[Function]}
            onResponderTerminationRequest={[Function]}
            onStartShouldSetResponder={[Function]}
            style={
              Array [
                false,
                Array [
                  Object {
                    "alignItems": "center",
                    "flex": 1,
                    "flexDirection": "row",
                  },
                  undefined,
                  undefined,
                ],
              ]
            }
          >
            <Text
              numberOfLines={1}
              style={
                Array [
                  Object {
                    "color": "#000000",
                    "fontFamily": "System",
                    "fontWeight": "400",
                    "textAlign": "left",
                  },
                  null,
                ]
              }
            >
              <Text
                style={
                  Array [
                    Object {
                      "color": "#000000",
                      "fontFamily": "System",
                      "fontWeight": "400",
                      "textAlign": "left",
                    },
                    Array [
                      Object {
                        "color": "rgba(0, 0, 0, 0.87)",
                        "fontFamily": "System",
                        "fontWeight": "400",
                        "textAlign": "left",
                        "writingDirection": "ltr",
                      },
                      Array [
                        Object {
                          "fontSize": 14,
                          "letterSpacing": 0.25,
                          "lineHeight": 20,
                          "marginVertical": 2,
                        },
                        Object {
                          "color": "#31b866",
                          "fontSize": 16,
                          "fontWeight": "bold",
                        },
                      ],
                      Array [
                        Object {
                          "fontSize": 14,
                          "letterSpacing": 0.25,
                          "lineHeight": 20,
                          "marginVertical": 2,
                        },
                        Object {
                          "color": "#31b866",
                          "fontSize": 16,
                          "fontWeight": "bold",
                        },
                      ],
                    ],
                  ]
                }
              >
                EASY
              </Text>
            </Text>
          </View>
          <View
            accessible={true}
            focusable={false}
            isTVSelectable={true}
            onClick={[Function]}
            onResponderGrant={[Function]}
            onResponderMove={[Function]}
            onResponderRelease={[Function]}
            onResponderTerminate={[Function]}
            onResponderTerminationRequest={[Function]}
            onStartShouldSetResponder={[Function]}
            style={
              Array [
                false,
                Array [
                  Object {
                    "alignItems": "center",
                    "flex": 1,
                    "flexDirection": "row",
                  },
                  Object {
                    "justifyContent": "flex-end",
                  },
                  undefined,
                ],
              ]
            }
          >
            <Text
              numberOfLines={1}
              style={
                Array [
                  Object {
                    "color": "#000000",
                    "fontFamily": "System",
                    "fontWeight": "400",
                    "textAlign": "left",
                  },
                  null,
                ]
              }
            >
              Täglich
            </Text>
          </View>
          <View
            accessible={true}
            focusable={false}
            isTVSelectable={true}
            onClick={[Function]}
            onResponderGrant={[Function]}
            onResponderMove={[Function]}
            onResponderRelease={[Function]}
            onResponderTerminate={[Function]}
            onResponderTerminationRequest={[Function]}
            onStartShouldSetResponder={[Function]}
            style={
              Array [
                false,
                Array [
                  Object {
                    "alignItems": "center",
                    "flex": 1,
                    "flexDirection": "row",
                  },
                  Object {
                    "justifyContent": "flex-end",
                  },
                  undefined,
                ],
              ]
            }
          >
            <Text
              numberOfLines={1}
              style={
                Array [
                  Object {
                    "color": "#000000",
                    "fontFamily": "System",
                    "fontWeight": "400",
                    "textAlign": "left",
                  },
                  null,
                ]
              }
            >
              100
               
              Tage
            </Text>
          </View>
        </View>
      </View>
    </View>
  </View>
</View>
`;

exports[`ChallengeInfo renders monthly hard 1`] = `
<View
  collapsable={false}
  pointerEvents="box-none"
  style={
    Object {
      "flex": 1,
    }
  }
>
  <View>
    <Image
      source={
        Object {
          "uri": "http://test.local/image/url",
        }
      }
      style={
        Object {
          "height": 150,
          "width": "100%",
        }
      }
    />
    <View
      style={
        Object {
          "paddingHorizontal": 8,
          "paddingVertical": 4,
        }
      }
    >
      <Text
        style={
          Array [
            Object {
              "color": "#000000",
              "fontFamily": "System",
              "fontWeight": "400",
              "textAlign": "left",
            },
            Array [
              Object {
                "color": "rgba(0, 0, 0, 0.87)",
                "fontFamily": "System",
                "fontWeight": "400",
                "textAlign": "left",
                "writingDirection": "ltr",
              },
              Array [
                Object {
                  "fontSize": 24,
                  "letterSpacing": 0,
                  "lineHeight": 32,
                  "marginVertical": 2,
                },
                Object {
                  "alignItems": "center",
                  "display": "flex",
                  "flexDirection": "column",
                  "fontSize": 18,
                  "fontWeight": "500",
                  "justifyContent": "center",
                },
              ],
              Array [
                Object {
                  "fontSize": 24,
                  "letterSpacing": 0,
                  "lineHeight": 32,
                  "marginVertical": 2,
                },
                Object {
                  "alignItems": "center",
                  "display": "flex",
                  "flexDirection": "column",
                  "fontSize": 18,
                  "fontWeight": "500",
                  "justifyContent": "center",
                },
              ],
            ],
          ]
        }
      >
        Challenge Title
      </Text>
      <Text
        style={
          Array [
            Object {
              "color": "#000000",
              "fontFamily": "System",
              "fontWeight": "400",
              "textAlign": "left",
            },
            Array [
              Object {
                "color": "rgba(0, 0, 0, 0.87)",
                "fontFamily": "System",
                "fontWeight": "400",
                "textAlign": "left",
                "writingDirection": "ltr",
              },
              Array [
                Object {
                  "fontSize": 14,
                  "letterSpacing": 0.25,
                  "lineHeight": 20,
                  "marginVertical": 2,
                },
                Object {
                  "color": "#838383",
                  "fontSize": 14,
                },
              ],
              Array [
                Object {
                  "fontSize": 14,
                  "letterSpacing": 0.25,
                  "lineHeight": 20,
                  "marginVertical": 2,
                },
                Object {
                  "color": "#838383",
                  "fontSize": 14,
                },
              ],
            ],
          ]
        }
      />
    </View>
    <View
      style={
        Array [
          Object {
            "width": "100%",
          },
          undefined,
        ]
      }
    >
      <View
        style={
          Array [
            Object {
              "borderBottomWidth": 1,
              "flexDirection": "row",
              "height": 48,
              "paddingHorizontal": 16,
            },
            Object {
              "borderBottomColor": "rgba(0, 0, 0, 0.12)",
            },
            undefined,
          ]
        }
      >
        <View
          accessible={true}
          focusable={false}
          onClick={[Function]}
          onResponderGrant={[Function]}
          onResponderMove={[Function]}
          onResponderRelease={[Function]}
          onResponderTerminate={[Function]}
          onResponderTerminationRequest={[Function]}
          onStartShouldSetResponder={[Function]}
          style={
            Array [
              Object {
                "alignContent": "center",
                "flex": 1,
                "flexDirection": "row",
                "paddingVertical": 12,
              },
              undefined,
              undefined,
            ]
          }
        >
          <Text
            numberOfLines={1}
            style={
              Array [
                Object {
                  "color": "#000000",
                  "fontFamily": "System",
                  "fontWeight": "400",
                  "textAlign": "left",
                },
                Array [
                  Object {
                    "alignItems": "center",
                    "fontSize": 12,
                    "fontWeight": "500",
                    "height": 24,
                    "lineHeight": 24,
                  },
                  Object {
                    "color": "rgba(0, 0, 0, 0.6)",
                  },
                ],
              ]
            }
          >
            Schwierigkeitsgrad
          </Text>
        </View>
        <View
          accessible={true}
          focusable={false}
          onClick={[Function]}
          onResponderGrant={[Function]}
          onResponderMove={[Function]}
          onResponderRelease={[Function]}
          onResponderTerminate={[Function]}
          onResponderTerminationRequest={[Function]}
          onStartShouldSetResponder={[Function]}
          style={
            Array [
              Object {
                "alignContent": "center",
                "flex": 1,
                "flexDirection": "row",
                "paddingVertical": 12,
              },
              Object {
                "justifyContent": "flex-end",
              },
              undefined,
            ]
          }
        >
          <Text
            numberOfLines={1}
            style={
              Array [
                Object {
                  "color": "#000000",
                  "fontFamily": "System",
                  "fontWeight": "400",
                  "textAlign": "left",
                },
                Array [
                  Object {
                    "alignItems": "center",
                    "fontSize": 12,
                    "fontWeight": "500",
                    "height": 24,
                    "lineHeight": 24,
                  },
                  Object {
                    "color": "rgba(0, 0, 0, 0.6)",
                  },
                ],
              ]
            }
          >
            Frequenz
          </Text>
        </View>
        <View
          accessible={true}
          focusable={false}
          onClick={[Function]}
          onResponderGrant={[Function]}
          onResponderMove={[Function]}
          onResponderRelease={[Function]}
          onResponderTerminate={[Function]}
          onResponderTerminationRequest={[Function]}
          onStartShouldSetResponder={[Function]}
          style={
            Array [
              Object {
                "alignContent": "center",
                "flex": 1,
                "flexDirection": "row",
                "paddingVertical": 12,
              },
              Object {
                "justifyContent": "flex-end",
              },
              undefined,
            ]
          }
        >
          <Text
            numberOfLines={1}
            style={
              Array [
                Object {
                  "color": "#000000",
                  "fontFamily": "System",
                  "fontWeight": "400",
                  "textAlign": "left",
                },
                Array [
                  Object {
                    "alignItems": "center",
                    "fontSize": 12,
                    "fontWeight": "500",
                    "height": 24,
                    "lineHeight": 24,
                  },
                  Object {
                    "color": "rgba(0, 0, 0, 0.6)",
                  },
                ],
              ]
            }
          >
            Dauer
          </Text>
        </View>
      </View>
      <View
        accessible={true}
        focusable={false}
        isTVSelectable={true}
        onClick={[Function]}
        onResponderGrant={[Function]}
        onResponderMove={[Function]}
        onResponderRelease={[Function]}
        onResponderTerminate={[Function]}
        onResponderTerminationRequest={[Function]}
        onStartShouldSetResponder={[Function]}
        style={
          Array [
            false,
            Array [
              Object {
                "borderBottomWidth": 0.5,
                "borderStyle": "solid",
                "minHeight": 48,
                "paddingHorizontal": 16,
              },
              Object {
                "borderBottomColor": "rgba(0, 0, 0, 0.12)",
              },
              undefined,
            ],
          ]
        }
      >
        <View
          style={
            Object {
              "flex": 1,
              "flexDirection": "row",
            }
          }
        >
          <View
            accessible={true}
            focusable={false}
            isTVSelectable={true}
            onClick={[Function]}
            onResponderGrant={[Function]}
            onResponderMove={[Function]}
            onResponderRelease={[Function]}
            onResponderTerminate={[Function]}
            onResponderTerminationRequest={[Function]}
            onStartShouldSetResponder={[Function]}
            style={
              Array [
                false,
                Array [
                  Object {
                    "alignItems": "center",
                    "flex": 1,
                    "flexDirection": "row",
                  },
                  undefined,
                  undefined,
                ],
              ]
            }
          >
            <Text
              numberOfLines={1}
              style={
                Array [
                  Object {
                    "color": "#000000",
                    "fontFamily": "System",
                    "fontWeight": "400",
                    "textAlign": "left",
                  },
                  null,
                ]
              }
            >
              <Text
                style={
                  Array [
                    Object {
                      "color": "#000000",
                      "fontFamily": "System",
                      "fontWeight": "400",
                      "textAlign": "left",
                    },
                    Array [
                      Object {
                        "color": "rgba(0, 0, 0, 0.87)",
                        "fontFamily": "System",
                        "fontWeight": "400",
                        "textAlign": "left",
                        "writingDirection": "ltr",
                      },
                      Array [
                        Object {
                          "fontSize": 14,
                          "letterSpacing": 0.25,
                          "lineHeight": 20,
                          "marginVertical": 2,
                        },
                        Object {
                          "color": "#f8320b",
                          "fontSize": 16,
                          "fontWeight": "bold",
                        },
                      ],
                      Array [
                        Object {
                          "fontSize": 14,
                          "letterSpacing": 0.25,
                          "lineHeight": 20,
                          "marginVertical": 2,
                        },
                        Object {
                          "color": "#f8320b",
                          "fontSize": 16,
                          "fontWeight": "bold",
                        },
                      ],
                    ],
                  ]
                }
              >
                HARD
              </Text>
            </Text>
          </View>
          <View
            accessible={true}
            focusable={false}
            isTVSelectable={true}
            onClick={[Function]}
            onResponderGrant={[Function]}
            onResponderMove={[Function]}
            onResponderRelease={[Function]}
            onResponderTerminate={[Function]}
            onResponderTerminationRequest={[Function]}
            onStartShouldSetResponder={[Function]}
            style={
              Array [
                false,
                Array [
                  Object {
                    "alignItems": "center",
                    "flex": 1,
                    "flexDirection": "row",
                  },
                  Object {
                    "justifyContent": "flex-end",
                  },
                  undefined,
                ],
              ]
            }
          >
            <Text
              numberOfLines={1}
              style={
                Array [
                  Object {
                    "color": "#000000",
                    "fontFamily": "System",
                    "fontWeight": "400",
                    "textAlign": "left",
                  },
                  null,
                ]
              }
            >
              Monatlich
            </Text>
          </View>
          <View
            accessible={true}
            focusable={false}
            isTVSelectable={true}
            onClick={[Function]}
            onResponderGrant={[Function]}
            onResponderMove={[Function]}
            onResponderRelease={[Function]}
            onResponderTerminate={[Function]}
            onResponderTerminationRequest={[Function]}
            onStartShouldSetResponder={[Function]}
            style={
              Array [
                false,
                Array [
                  Object {
                    "alignItems": "center",
                    "flex": 1,
                    "flexDirection": "row",
                  },
                  Object {
                    "justifyContent": "flex-end",
                  },
                  undefined,
                ],
              ]
            }
          >
            <Text
              numberOfLines={1}
              style={
                Array [
                  Object {
                    "color": "#000000",
                    "fontFamily": "System",
                    "fontWeight": "400",
                    "textAlign": "left",
                  },
                  null,
                ]
              }
            >
              200
               
              Monate
            </Text>
          </View>
        </View>
      </View>
    </View>
  </View>
</View>
`;

exports[`ChallengeInfo renders unkown periodicity 1`] = `
<View
  collapsable={false}
  pointerEvents="box-none"
  style={
    Object {
      "flex": 1,
    }
  }
>
  <View>
    <Image
      source={
        Object {
          "uri": "http://test.local/image/url",
        }
      }
      style={
        Object {
          "height": 150,
          "width": "100%",
        }
      }
    />
    <View
      style={
        Object {
          "paddingHorizontal": 8,
          "paddingVertical": 4,
        }
      }
    >
      <Text
        style={
          Array [
            Object {
              "color": "#000000",
              "fontFamily": "System",
              "fontWeight": "400",
              "textAlign": "left",
            },
            Array [
              Object {
                "color": "rgba(0, 0, 0, 0.87)",
                "fontFamily": "System",
                "fontWeight": "400",
                "textAlign": "left",
                "writingDirection": "ltr",
              },
              Array [
                Object {
                  "fontSize": 24,
                  "letterSpacing": 0,
                  "lineHeight": 32,
                  "marginVertical": 2,
                },
                Object {
                  "alignItems": "center",
                  "display": "flex",
                  "flexDirection": "column",
                  "fontSize": 18,
                  "fontWeight": "500",
                  "justifyContent": "center",
                },
              ],
              Array [
                Object {
                  "fontSize": 24,
                  "letterSpacing": 0,
                  "lineHeight": 32,
                  "marginVertical": 2,
                },
                Object {
                  "alignItems": "center",
                  "display": "flex",
                  "flexDirection": "column",
                  "fontSize": 18,
                  "fontWeight": "500",
                  "justifyContent": "center",
                },
              ],
            ],
          ]
        }
      >
        Challenge Title
      </Text>
      <Text
        style={
          Array [
            Object {
              "color": "#000000",
              "fontFamily": "System",
              "fontWeight": "400",
              "textAlign": "left",
            },
            Array [
              Object {
                "color": "rgba(0, 0, 0, 0.87)",
                "fontFamily": "System",
                "fontWeight": "400",
                "textAlign": "left",
                "writingDirection": "ltr",
              },
              Array [
                Object {
                  "fontSize": 14,
                  "letterSpacing": 0.25,
                  "lineHeight": 20,
                  "marginVertical": 2,
                },
                Object {
                  "color": "#838383",
                  "fontSize": 14,
                },
              ],
              Array [
                Object {
                  "fontSize": 14,
                  "letterSpacing": 0.25,
                  "lineHeight": 20,
                  "marginVertical": 2,
                },
                Object {
                  "color": "#838383",
                  "fontSize": 14,
                },
              ],
            ],
          ]
        }
      />
    </View>
    <View
      style={
        Array [
          Object {
            "width": "100%",
          },
          undefined,
        ]
      }
    >
      <View
        style={
          Array [
            Object {
              "borderBottomWidth": 1,
              "flexDirection": "row",
              "height": 48,
              "paddingHorizontal": 16,
            },
            Object {
              "borderBottomColor": "rgba(0, 0, 0, 0.12)",
            },
            undefined,
          ]
        }
      >
        <View
          accessible={true}
          focusable={false}
          onClick={[Function]}
          onResponderGrant={[Function]}
          onResponderMove={[Function]}
          onResponderRelease={[Function]}
          onResponderTerminate={[Function]}
          onResponderTerminationRequest={[Function]}
          onStartShouldSetResponder={[Function]}
          style={
            Array [
              Object {
                "alignContent": "center",
                "flex": 1,
                "flexDirection": "row",
                "paddingVertical": 12,
              },
              undefined,
              undefined,
            ]
          }
        >
          <Text
            numberOfLines={1}
            style={
              Array [
                Object {
                  "color": "#000000",
                  "fontFamily": "System",
                  "fontWeight": "400",
                  "textAlign": "left",
                },
                Array [
                  Object {
                    "alignItems": "center",
                    "fontSize": 12,
                    "fontWeight": "500",
                    "height": 24,
                    "lineHeight": 24,
                  },
                  Object {
                    "color": "rgba(0, 0, 0, 0.6)",
                  },
                ],
              ]
            }
          >
            Schwierigkeitsgrad
          </Text>
        </View>
        <View
          accessible={true}
          focusable={false}
          onClick={[Function]}
          onResponderGrant={[Function]}
          onResponderMove={[Function]}
          onResponderRelease={[Function]}
          onResponderTerminate={[Function]}
          onResponderTerminationRequest={[Function]}
          onStartShouldSetResponder={[Function]}
          style={
            Array [
              Object {
                "alignContent": "center",
                "flex": 1,
                "flexDirection": "row",
                "paddingVertical": 12,
              },
              Object {
                "justifyContent": "flex-end",
              },
              undefined,
            ]
          }
        >
          <Text
            numberOfLines={1}
            style={
              Array [
                Object {
                  "color": "#000000",
                  "fontFamily": "System",
                  "fontWeight": "400",
                  "textAlign": "left",
                },
                Array [
                  Object {
                    "alignItems": "center",
                    "fontSize": 12,
                    "fontWeight": "500",
                    "height": 24,
                    "lineHeight": 24,
                  },
                  Object {
                    "color": "rgba(0, 0, 0, 0.6)",
                  },
                ],
              ]
            }
          >
            Frequenz
          </Text>
        </View>
        <View
          accessible={true}
          focusable={false}
          onClick={[Function]}
          onResponderGrant={[Function]}
          onResponderMove={[Function]}
          onResponderRelease={[Function]}
          onResponderTerminate={[Function]}
          onResponderTerminationRequest={[Function]}
          onStartShouldSetResponder={[Function]}
          style={
            Array [
              Object {
                "alignContent": "center",
                "flex": 1,
                "flexDirection": "row",
                "paddingVertical": 12,
              },
              Object {
                "justifyContent": "flex-end",
              },
              undefined,
            ]
          }
        >
          <Text
            numberOfLines={1}
            style={
              Array [
                Object {
                  "color": "#000000",
                  "fontFamily": "System",
                  "fontWeight": "400",
                  "textAlign": "left",
                },
                Array [
                  Object {
                    "alignItems": "center",
                    "fontSize": 12,
                    "fontWeight": "500",
                    "height": 24,
                    "lineHeight": 24,
                  },
                  Object {
                    "color": "rgba(0, 0, 0, 0.6)",
                  },
                ],
              ]
            }
          >
            Dauer
          </Text>
        </View>
      </View>
      <View
        accessible={true}
        focusable={false}
        isTVSelectable={true}
        onClick={[Function]}
        onResponderGrant={[Function]}
        onResponderMove={[Function]}
        onResponderRelease={[Function]}
        onResponderTerminate={[Function]}
        onResponderTerminationRequest={[Function]}
        onStartShouldSetResponder={[Function]}
        style={
          Array [
            false,
            Array [
              Object {
                "borderBottomWidth": 0.5,
                "borderStyle": "solid",
                "minHeight": 48,
                "paddingHorizontal": 16,
              },
              Object {
                "borderBottomColor": "rgba(0, 0, 0, 0.12)",
              },
              undefined,
            ],
          ]
        }
      >
        <View
          style={
            Object {
              "flex": 1,
              "flexDirection": "row",
            }
          }
        >
          <View
            accessible={true}
            focusable={false}
            isTVSelectable={true}
            onClick={[Function]}
            onResponderGrant={[Function]}
            onResponderMove={[Function]}
            onResponderRelease={[Function]}
            onResponderTerminate={[Function]}
            onResponderTerminationRequest={[Function]}
            onStartShouldSetResponder={[Function]}
            style={
              Array [
                false,
                Array [
                  Object {
                    "alignItems": "center",
                    "flex": 1,
                    "flexDirection": "row",
                  },
                  undefined,
                  undefined,
                ],
              ]
            }
          >
            <Text
              numberOfLines={1}
              style={
                Array [
                  Object {
                    "color": "#000000",
                    "fontFamily": "System",
                    "fontWeight": "400",
                    "textAlign": "left",
                  },
                  null,
                ]
              }
            >
              <Text
                style={
                  Array [
                    Object {
                      "color": "#000000",
                      "fontFamily": "System",
                      "fontWeight": "400",
                      "textAlign": "left",
                    },
                    Array [
                      Object {
                        "color": "rgba(0, 0, 0, 0.87)",
                        "fontFamily": "System",
                        "fontWeight": "400",
                        "textAlign": "left",
                        "writingDirection": "ltr",
                      },
                      Array [
                        Object {
                          "fontSize": 14,
                          "letterSpacing": 0.25,
                          "lineHeight": 20,
                          "marginVertical": 2,
                        },
                        Object {
                          "color": "#31b866",
                          "fontSize": 16,
                          "fontWeight": "bold",
                        },
                      ],
                      Array [
                        Object {
                          "fontSize": 14,
                          "letterSpacing": 0.25,
                          "lineHeight": 20,
                          "marginVertical": 2,
                        },
                        Object {
                          "color": "#31b866",
                          "fontSize": 16,
                          "fontWeight": "bold",
                        },
                      ],
                    ],
                  ]
                }
              />
            </Text>
          </View>
          <View
            accessible={true}
            focusable={false}
            isTVSelectable={true}
            onClick={[Function]}
            onResponderGrant={[Function]}
            onResponderMove={[Function]}
            onResponderRelease={[Function]}
            onResponderTerminate={[Function]}
            onResponderTerminationRequest={[Function]}
            onStartShouldSetResponder={[Function]}
            style={
              Array [
                false,
                Array [
                  Object {
                    "alignItems": "center",
                    "flex": 1,
                    "flexDirection": "row",
                  },
                  Object {
                    "justifyContent": "flex-end",
                  },
                  undefined,
                ],
              ]
            }
          >
            <Text
              numberOfLines={1}
              style={
                Array [
                  Object {
                    "color": "#000000",
                    "fontFamily": "System",
                    "fontWeight": "400",
                    "textAlign": "left",
                  },
                  null,
                ]
              }
            >
              &lt;Unknown periodicity afafasfs
            </Text>
          </View>
          <View
            accessible={true}
            focusable={false}
            isTVSelectable={true}
            onClick={[Function]}
            onResponderGrant={[Function]}
            onResponderMove={[Function]}
            onResponderRelease={[Function]}
            onResponderTerminate={[Function]}
            onResponderTerminationRequest={[Function]}
            onStartShouldSetResponder={[Function]}
            style={
              Array [
                false,
                Array [
                  Object {
                    "alignItems": "center",
                    "flex": 1,
                    "flexDirection": "row",
                  },
                  Object {
                    "justifyContent": "flex-end",
                  },
                  undefined,
                ],
              ]
            }
          >
            <Text
              numberOfLines={1}
              style={
                Array [
                  Object {
                    "color": "#000000",
                    "fontFamily": "System",
                    "fontWeight": "400",
                    "textAlign": "left",
                  },
                  null,
                ]
              }
            >
              100
               
              &lt;Unknown periodicity afafasfs
            </Text>
          </View>
        </View>
      </View>
    </View>
  </View>
</View>
`;

exports[`ChallengeInfo renders weekly advanced 1`] = `
<View
  collapsable={false}
  pointerEvents="box-none"
  style={
    Object {
      "flex": 1,
    }
  }
>
  <View>
    <Image
      source={
        Object {
          "uri": "http://test.local/image/url",
        }
      }
      style={
        Object {
          "height": 150,
          "width": "100%",
        }
      }
    />
    <View
      style={
        Object {
          "paddingHorizontal": 8,
          "paddingVertical": 4,
        }
      }
    >
      <Text
        style={
          Array [
            Object {
              "color": "#000000",
              "fontFamily": "System",
              "fontWeight": "400",
              "textAlign": "left",
            },
            Array [
              Object {
                "color": "rgba(0, 0, 0, 0.87)",
                "fontFamily": "System",
                "fontWeight": "400",
                "textAlign": "left",
                "writingDirection": "ltr",
              },
              Array [
                Object {
                  "fontSize": 24,
                  "letterSpacing": 0,
                  "lineHeight": 32,
                  "marginVertical": 2,
                },
                Object {
                  "alignItems": "center",
                  "display": "flex",
                  "flexDirection": "column",
                  "fontSize": 18,
                  "fontWeight": "500",
                  "justifyContent": "center",
                },
              ],
              Array [
                Object {
                  "fontSize": 24,
                  "letterSpacing": 0,
                  "lineHeight": 32,
                  "marginVertical": 2,
                },
                Object {
                  "alignItems": "center",
                  "display": "flex",
                  "flexDirection": "column",
                  "fontSize": 18,
                  "fontWeight": "500",
                  "justifyContent": "center",
                },
              ],
            ],
          ]
        }
      >
        Challenge Title 14124
      </Text>
      <Text
        style={
          Array [
            Object {
              "color": "#000000",
              "fontFamily": "System",
              "fontWeight": "400",
              "textAlign": "left",
            },
            Array [
              Object {
                "color": "rgba(0, 0, 0, 0.87)",
                "fontFamily": "System",
                "fontWeight": "400",
                "textAlign": "left",
                "writingDirection": "ltr",
              },
              Array [
                Object {
                  "fontSize": 14,
                  "letterSpacing": 0.25,
                  "lineHeight": 20,
                  "marginVertical": 2,
                },
                Object {
                  "color": "#838383",
                  "fontSize": 14,
                },
              ],
              Array [
                Object {
                  "fontSize": 14,
                  "letterSpacing": 0.25,
                  "lineHeight": 20,
                  "marginVertical": 2,
                },
                Object {
                  "color": "#838383",
                  "fontSize": 14,
                },
              ],
            ],
          ]
        }
      />
    </View>
    <View
      style={
        Array [
          Object {
            "width": "100%",
          },
          undefined,
        ]
      }
    >
      <View
        style={
          Array [
            Object {
              "borderBottomWidth": 1,
              "flexDirection": "row",
              "height": 48,
              "paddingHorizontal": 16,
            },
            Object {
              "borderBottomColor": "rgba(0, 0, 0, 0.12)",
            },
            undefined,
          ]
        }
      >
        <View
          accessible={true}
          focusable={false}
          onClick={[Function]}
          onResponderGrant={[Function]}
          onResponderMove={[Function]}
          onResponderRelease={[Function]}
          onResponderTerminate={[Function]}
          onResponderTerminationRequest={[Function]}
          onStartShouldSetResponder={[Function]}
          style={
            Array [
              Object {
                "alignContent": "center",
                "flex": 1,
                "flexDirection": "row",
                "paddingVertical": 12,
              },
              undefined,
              undefined,
            ]
          }
        >
          <Text
            numberOfLines={1}
            style={
              Array [
                Object {
                  "color": "#000000",
                  "fontFamily": "System",
                  "fontWeight": "400",
                  "textAlign": "left",
                },
                Array [
                  Object {
                    "alignItems": "center",
                    "fontSize": 12,
                    "fontWeight": "500",
                    "height": 24,
                    "lineHeight": 24,
                  },
                  Object {
                    "color": "rgba(0, 0, 0, 0.6)",
                  },
                ],
              ]
            }
          >
            Schwierigkeitsgrad
          </Text>
        </View>
        <View
          accessible={true}
          focusable={false}
          onClick={[Function]}
          onResponderGrant={[Function]}
          onResponderMove={[Function]}
          onResponderRelease={[Function]}
          onResponderTerminate={[Function]}
          onResponderTerminationRequest={[Function]}
          onStartShouldSetResponder={[Function]}
          style={
            Array [
              Object {
                "alignContent": "center",
                "flex": 1,
                "flexDirection": "row",
                "paddingVertical": 12,
              },
              Object {
                "justifyContent": "flex-end",
              },
              undefined,
            ]
          }
        >
          <Text
            numberOfLines={1}
            style={
              Array [
                Object {
                  "color": "#000000",
                  "fontFamily": "System",
                  "fontWeight": "400",
                  "textAlign": "left",
                },
                Array [
                  Object {
                    "alignItems": "center",
                    "fontSize": 12,
                    "fontWeight": "500",
                    "height": 24,
                    "lineHeight": 24,
                  },
                  Object {
                    "color": "rgba(0, 0, 0, 0.6)",
                  },
                ],
              ]
            }
          >
            Frequenz
          </Text>
        </View>
        <View
          accessible={true}
          focusable={false}
          onClick={[Function]}
          onResponderGrant={[Function]}
          onResponderMove={[Function]}
          onResponderRelease={[Function]}
          onResponderTerminate={[Function]}
          onResponderTerminationRequest={[Function]}
          onStartShouldSetResponder={[Function]}
          style={
            Array [
              Object {
                "alignContent": "center",
                "flex": 1,
                "flexDirection": "row",
                "paddingVertical": 12,
              },
              Object {
                "justifyContent": "flex-end",
              },
              undefined,
            ]
          }
        >
          <Text
            numberOfLines={1}
            style={
              Array [
                Object {
                  "color": "#000000",
                  "fontFamily": "System",
                  "fontWeight": "400",
                  "textAlign": "left",
                },
                Array [
                  Object {
                    "alignItems": "center",
                    "fontSize": 12,
                    "fontWeight": "500",
                    "height": 24,
                    "lineHeight": 24,
                  },
                  Object {
                    "color": "rgba(0, 0, 0, 0.6)",
                  },
                ],
              ]
            }
          >
            Dauer
          </Text>
        </View>
      </View>
      <View
        accessible={true}
        focusable={false}
        isTVSelectable={true}
        onClick={[Function]}
        onResponderGrant={[Function]}
        onResponderMove={[Function]}
        onResponderRelease={[Function]}
        onResponderTerminate={[Function]}
        onResponderTerminationRequest={[Function]}
        onStartShouldSetResponder={[Function]}
        style={
          Array [
            false,
            Array [
              Object {
                "borderBottomWidth": 0.5,
                "borderStyle": "solid",
                "minHeight": 48,
                "paddingHorizontal": 16,
              },
              Object {
                "borderBottomColor": "rgba(0, 0, 0, 0.12)",
              },
              undefined,
            ],
          ]
        }
      >
        <View
          style={
            Object {
              "flex": 1,
              "flexDirection": "row",
            }
          }
        >
          <View
            accessible={true}
            focusable={false}
            isTVSelectable={true}
            onClick={[Function]}
            onResponderGrant={[Function]}
            onResponderMove={[Function]}
            onResponderRelease={[Function]}
            onResponderTerminate={[Function]}
            onResponderTerminationRequest={[Function]}
            onStartShouldSetResponder={[Function]}
            style={
              Array [
                false,
                Array [
                  Object {
                    "alignItems": "center",
                    "flex": 1,
                    "flexDirection": "row",
                  },
                  undefined,
                  undefined,
                ],
              ]
            }
          >
            <Text
              numberOfLines={1}
              style={
                Array [
                  Object {
                    "color": "#000000",
                    "fontFamily": "System",
                    "fontWeight": "400",
                    "textAlign": "left",
                  },
                  null,
                ]
              }
            >
              <Text
                style={
                  Array [
                    Object {
                      "color": "#000000",
                      "fontFamily": "System",
                      "fontWeight": "400",
                      "textAlign": "left",
                    },
                    Array [
                      Object {
                        "color": "rgba(0, 0, 0, 0.87)",
                        "fontFamily": "System",
                        "fontWeight": "400",
                        "textAlign": "left",
                        "writingDirection": "ltr",
                      },
                      Array [
                        Object {
                          "fontSize": 14,
                          "letterSpacing": 0.25,
                          "lineHeight": 20,
                          "marginVertical": 2,
                        },
                        Object {
                          "color": "#006B2A",
                          "fontSize": 16,
                          "fontWeight": "bold",
                        },
                      ],
                      Array [
                        Object {
                          "fontSize": 14,
                          "letterSpacing": 0.25,
                          "lineHeight": 20,
                          "marginVertical": 2,
                        },
                        Object {
                          "color": "#006B2A",
                          "fontSize": 16,
                          "fontWeight": "bold",
                        },
                      ],
                    ],
                  ]
                }
              >
                ADVANCED
              </Text>
            </Text>
          </View>
          <View
            accessible={true}
            focusable={false}
            isTVSelectable={true}
            onClick={[Function]}
            onResponderGrant={[Function]}
            onResponderMove={[Function]}
            onResponderRelease={[Function]}
            onResponderTerminate={[Function]}
            onResponderTerminationRequest={[Function]}
            onStartShouldSetResponder={[Function]}
            style={
              Array [
                false,
                Array [
                  Object {
                    "alignItems": "center",
                    "flex": 1,
                    "flexDirection": "row",
                  },
                  Object {
                    "justifyContent": "flex-end",
                  },
                  undefined,
                ],
              ]
            }
          >
            <Text
              numberOfLines={1}
              style={
                Array [
                  Object {
                    "color": "#000000",
                    "fontFamily": "System",
                    "fontWeight": "400",
                    "textAlign": "left",
                  },
                  null,
                ]
              }
            >
              Wöchentlich
            </Text>
          </View>
          <View
            accessible={true}
            focusable={false}
            isTVSelectable={true}
            onClick={[Function]}
            onResponderGrant={[Function]}
            onResponderMove={[Function]}
            onResponderRelease={[Function]}
            onResponderTerminate={[Function]}
            onResponderTerminationRequest={[Function]}
            onStartShouldSetResponder={[Function]}
            style={
              Array [
                false,
                Array [
                  Object {
                    "alignItems": "center",
                    "flex": 1,
                    "flexDirection": "row",
                  },
                  Object {
                    "justifyContent": "flex-end",
                  },
                  undefined,
                ],
              ]
            }
          >
            <Text
              numberOfLines={1}
              style={
                Array [
                  Object {
                    "color": "#000000",
                    "fontFamily": "System",
                    "fontWeight": "400",
                    "textAlign": "left",
                  },
                  null,
                ]
              }
            >
              10
               
              Wochen
            </Text>
          </View>
        </View>
      </View>
    </View>
  </View>
</View>
`;
